{
  "movies": {
    "current_page": 1,
    "data": [
      {
        "id": null,
        "title": "saepe",
        "image_url": "https://via.placeholder.com/640x480.png/00aa88?text=aut",
        "published_year": 1744,
        "is_showing": 1,
        "description": "architecto",
        "genre_id": 5,
        "created_at": null,
        "updated_at": null,
        "movie_id": null,
        "start_time": null,
        "end_time": null,
        "schedules": []
      },
      {
        "id": null,
        "title": "recusandae",
        "image_url": "https://via.placeholder.com/640x480.png/0044aa?text=perspiciatis",
        "published_year": 37,
        "is_showing": 1,
        "description": "laudantium",
        "genre_id": 6,
        "created_at": null,
        "updated_at": null,
        "movie_id": null,
        "start_time": null,
        "end_time": null,
        "schedules": []
      },
      {
        "id": null,
        "title": "beatae",
        "image_url": "https://via.placeholder.com/640x480.png/009933?text=ducimus",
        "published_year": 760,
        "is_showing": 1,
        "description": "aperiam",
        "genre_id": 8,
        "created_at": null,
        "updated_at": null,
        "movie_id": null,
        "start_time": null,
        "end_time": null,
        "schedules": []
      },
      {
        "id": 42,
        "title": "ab",
        "image_url": "https://via.placeholder.com/640x480.png/006633?text=laborum",
        "published_year": 1456,
        "is_showing": 0,
        "description": "vero",
        "genre_id": 6,
        "created_at": "2024-01-09T22:57:19.000000Z",
        "updated_at": "2024-01-09T22:57:19.000000Z",
        "movie_id": 42,
        "start_time": "2024-01-10 07:57:19",
        "end_time": "2024-01-10 09:57:19",
        "schedules": []
      },
      {
        "id": 53,
        "title": "aspernatur",
        "image_url": "https://via.placeholder.com/640x480.png/009944?text=rem",
        "published_year": 879,
        "is_showing": 0,
        "description": "praesentium",
        "genre_id": 3,
        "created_at": "2024-01-09T22:57:19.000000Z",
        "updated_at": "2024-01-09T22:57:19.000000Z",
        "movie_id": 53,
        "start_time": "2024-01-10 07:57:19",
        "end_time": "2024-01-10 09:57:19",
        "schedules": []
      },
      {
        "id": 45,
        "title": "dolorem",
        "image_url": "https://via.placeholder.com/640x480.png/00cc66?text=aut",
        "published_year": 1448,
        "is_showing": 1,
        "description": "deleniti",
        "genre_id": 2,
        "created_at": "2024-01-09T22:57:19.000000Z",
        "updated_at": "2024-01-09T22:57:19.000000Z",
        "movie_id": 45,
        "start_time": "2024-01-10 07:57:19",
        "end_time": "2024-01-10 09:57:19",
        "schedules": []
      },
      {
        "id": 44,
        "title": "nemo",
        "image_url": "https://via.placeholder.com/640x480.png/0033cc?text=doloribus",
        "published_year": 39,
        "is_showing": 1,
        "description": "perspiciatis",
        "genre_id": 3,
        "created_at": "2024-01-09T22:57:19.000000Z",
        "updated_at": "2024-01-09T22:57:19.000000Z",
        "movie_id": 44,
        "start_time": "2024-01-10 07:57:19",
        "end_time": "2024-01-10 09:57:19",
        "schedules": []
      },
      {
        "id": 43,
        "title": "eius",
        "image_url": "https://via.placeholder.com/640x480.png/00ff66?text=vel",
        "published_year": 117,
        "is_showing": 0,
        "description": "nisi",
        "genre_id": 10,
        "created_at": "2024-01-09T22:57:19.000000Z",
        "updated_at": "2024-01-09T22:57:19.000000Z",
        "movie_id": 43,
        "start_time": "2024-01-10 07:57:19",
        "end_time": "2024-01-10 09:57:19",
        "schedules": []
      },
      {
        "id": 40,
        "title": "quisquam",
        "image_url": "https://via.placeholder.com/640x480.png/00ff99?text=ab",
        "published_year": 1037,
        "is_showing": 0,
        "description": "sequi",
        "genre_id": 8,
        "created_at": "2024-01-09T22:57:19.000000Z",
        "updated_at": "2024-01-09T22:57:19.000000Z",
        "movie_id": 40,
        "start_time": "2024-01-10 07:57:19",
        "end_time": "2024-01-10 09:57:19",
        "schedules": []
      },
      {
        "id": 39,
        "title": "quibusdam",
        "image_url": "https://via.placeholder.com/640x480.png/002211?text=necessitatibus",
        "published_year": 1746,
        "is_showing": 1,
        "description": "vel",
        "genre_id": 9,
        "created_at": "2024-01-09T22:57:19.000000Z",
        "updated_at": "2024-01-09T22:57:19.000000Z",
        "movie_id": 39,
        "start_time": "2024-01-10 07:57:19",
        "end_time": "2024-01-10 09:57:19",
        "schedules": []
      },
      {
        "id": 37,
        "title": "accusantium",
        "image_url": "https://via.placeholder.com/640x480.png/0077aa?text=dolorum",
        "published_year": 736,
        "is_showing": 0,
        "description": "non",
        "genre_id": 1,
        "created_at": "2024-01-09T22:57:19.000000Z",
        "updated_at": "2024-01-09T22:57:19.000000Z",
        "movie_id": 37,
        "start_time": "2024-01-10 07:57:19",
        "end_time": "2024-01-10 09:57:19",
        "schedules": [
          {
            "id": 37,
            "movie_id": 37,
            "start_time": "2024-01-09T22:57:19.000000Z",
            "end_time": "2024-01-10T00:57:19.000000Z",
            "created_at": "2024-01-09T22:57:19.000000Z",
            "updated_at": "2024-01-09T22:57:19.000000Z"
          }
        ]
      },
      {
        "id": 41,
        "title": "quo",
        "image_url": "https://via.placeholder.com/640x480.png/00ddee?text=nobis",
        "published_year": 288,
        "is_showing": 1,
        "description": "itaque",
        "genre_id": 4,
        "created_at": "2024-01-09T22:57:19.000000Z",
        "updated_at": "2024-01-09T22:57:19.000000Z",
        "movie_id": 41,
        "start_time": "2024-01-10 07:57:19",
        "end_time": "2024-01-10 09:57:19",
        "schedules": []
      },
      {
        "id": 46,
        "title": "iure",
        "image_url": "https://via.placeholder.com/640x480.png/00bb22?text=veniam",
        "published_year": 1142,
        "is_showing": 1,
        "description": "voluptates",
        "genre_id": 2,
        "created_at": "2024-01-09T22:57:19.000000Z",
        "updated_at": "2024-01-09T22:57:19.000000Z",
        "movie_id": 46,
        "start_time": "2024-01-10 07:57:19",
        "end_time": "2024-01-10 09:57:19",
        "schedules": []
      },
      {
        "id": 47,
        "title": "voluptatibus",
        "image_url": "https://via.placeholder.com/640x480.png/003399?text=praesentium",
        "published_year": 11,
        "is_showing": 0,
        "description": "sunt",
        "genre_id": 7,
        "created_at": "2024-01-09T22:57:19.000000Z",
        "updated_at": "2024-01-09T22:57:19.000000Z",
        "movie_id": 47,
        "start_time": "2024-01-10 07:57:19",
        "end_time": "2024-01-10 09:57:19",
        "schedules": []
      },
      {
        "id": 48,
        "title": "nostrum",
        "image_url": "https://via.placeholder.com/640x480.png/0033aa?text=et",
        "published_year": 0,
        "is_showing": 0,
        "description": "incidunt",
        "genre_id": 9,
        "created_at": "2024-01-09T22:57:19.000000Z",
        "updated_at": "2024-01-09T22:57:19.000000Z",
        "movie_id": 48,
        "start_time": "2024-01-10 07:57:19",
        "end_time": "2024-01-10 09:57:19",
        "schedules": []
      },
      {
        "id": 49,
        "title": "culpa",
        "image_url": "https://via.placeholder.com/640x480.png/00ff99?text=eum",
        "published_year": 469,
        "is_showing": 1,
        "description": "nobis",
        "genre_id": 4,
        "created_at": "2024-01-09T22:57:19.000000Z",
        "updated_at": "2024-01-09T22:57:19.000000Z",
        "movie_id": 49,
        "start_time": "2024-01-10 07:57:19",
        "end_time": "2024-01-10 09:57:19",
        "schedules": []
      },
      {
        "id": 50,
        "title": "minus",
        "image_url": "https://via.placeholder.com/640x480.png/00aa11?text=nesciunt",
        "published_year": 828,
        "is_showing": 0,
        "description": "ullam",
        "genre_id": 10,
        "created_at": "2024-01-09T22:57:19.000000Z",
        "updated_at": "2024-01-09T22:57:19.000000Z",
        "movie_id": 50,
        "start_time": "2024-01-10 07:57:19",
        "end_time": "2024-01-10 09:57:19",
        "schedules": []
      },
      {
        "id": 51,
        "title": "harum",
        "image_url": "https://via.placeholder.com/640x480.png/008833?text=illum",
        "published_year": 529,
        "is_showing": 1,
        "description": "earum",
        "genre_id": 9,
        "created_at": "2024-01-09T22:57:19.000000Z",
        "updated_at": "2024-01-09T22:57:19.000000Z",
        "movie_id": 51,
        "start_time": "2024-01-10 07:57:19",
        "end_time": "2024-01-10 09:57:19",
        "schedules": []
      },
      {
        "id": 52,
        "title": "at",
        "image_url": "https://via.placeholder.com/640x480.png/0044bb?text=ut",
        "published_year": 621,
        "is_showing": 0,
        "description": "quis",
        "genre_id": 4,
        "created_at": "2024-01-09T22:57:19.000000Z",
        "updated_at": "2024-01-09T22:57:19.000000Z",
        "movie_id": 52,
        "start_time": "2024-01-10 07:57:19",
        "end_time": "2024-01-10 09:57:19",
        "schedules": []
      },
      {
        "id": 38,
        "title": "libero",
        "image_url": "https://via.placeholder.com/640x480.png/007744?text=molestias",
        "published_year": 894,
        "is_showing": 0,
        "description": "id",
        "genre_id": 8,
        "created_at": "2024-01-09T22:57:19.000000Z",
        "updated_at": "2024-01-09T22:57:19.000000Z",
        "movie_id": 38,
        "start_time": "2024-01-10 07:57:19",
        "end_time": "2024-01-10 09:57:19",
        "schedules": []
      }
    ],
    "first_page_url": "http://localhost:8888/test/scheduleTest?page=1",
    "from": 1,
    "last_page": 4,
    "last_page_url": "http://localhost:8888/test/scheduleTest?page=4",
    "links": [
      { "url": null, "label": "&laquo; Previous", "active": false },
      {
        "url": "http://localhost:8888/test/scheduleTest?page=1",
        "label": "1",
        "active": true
      },
      {
        "url": "http://localhost:8888/test/scheduleTest?page=2",
        "label": "2",
        "active": false
      },
      {
        "url": "http://localhost:8888/test/scheduleTest?page=3",
        "label": "3",
        "active": false
      },
      {
        "url": "http://localhost:8888/test/scheduleTest?page=4",
        "label": "4",
        "active": false
      },
      {
        "url": "http://localhost:8888/test/scheduleTest?page=2",
        "label": "Next &raquo;",
        "active": false
      }
    ],
    "next_page_url": "http://localhost:8888/test/scheduleTest?page=2",
    "path": "http://localhost:8888/test/scheduleTest",
    "per_page": 20,
    "prev_page_url": null,
    "to": 20,
    "total": 73
  }
}
